module gitlab.com/MikeModder/Wonky-Shell

require (
	github.com/gorilla/mux v1.6.3-0.20180903154305-9e1f5955c0d2 // indirect
	github.com/logrusorgru/aurora v0.0.0-20180419164547-d694e6f975a9 // indirect
)
